Teaching Data Science Masterclass - Teaching data science with the tidyverse and Quarto
…
 Fisheries of the world

Open the Posit Cloud project titled Fisheries of the world and work through the exercises that guide you through visualizing percentage of aquaculture across continents. Render the document after each exercise.

−+

10:00

Concepts

fisheries |>
  select(country)

# A tibble: 216 × 1
   country            
   <chr>              
 1 Afghanistan        
 2 Albania            
 3 Algeria            
 4 American Samoa     
 5 Andorra            
 6 Angola             
 7 Antigua and Barbuda
 8 Argentina          
 9 Armenia            
10 Aruba              
# ℹ 206 more rows

continents

# A tibble: 245 × 2
   country           continent
   <chr>             <chr>    
 1 Afghanistan       Asia     
 2 Åland Islands     Europe   
 3 Albania           Europe   
 4 Algeria           Africa   
 5 American Samoa    Oceania  
 6 Andorra           Europe   
 7 Angola            Africa   
 8 Anguilla          Americas 
 9 Antigua & Barbuda Americas 
10 Argentina         Americas 
# ℹ 235 more rows
…
